<?xml version="1.0" encoding="utf-8"?>
<!-- Generator: Adobe Illustrator 23.0.1, SVG Export Plug-In . SVG Version: 6.00 Build 0)  -->
<svg version="1.1" id="Camada_1" xmlns="http://www.w3.org/2000/svg" xmlns:xlink="http://www.w3.org/1999/xlink" x="0px" y="0px"
	 viewBox="0 0 1000 1000" style="enable-background:new 0 0 1000 1000;" xml:space="preserve">
<style type="text/css">
	.st0{fill:#FF4B4B;}
</style>
<title>scroll-down</title>
<path class="st0" d="M500,0C349.4,0,227.3,122.1,227.3,272.8v454.4c0,150.6,122.1,272.8,272.7,272.8s272.7-122.1,272.7-272.8V272.7
	C772.8,122.2,650.6,0,500,0L500,0z M736.3,727.2c0,130.3-105.9,236.3-236.3,236.3s-236.2-106-236.2-236.3V272.7
	c0-130.3,105.9-236.3,236.3-236.3s236.3,106.1,236.3,236.3L736.3,727.2z M362.8,291.4l129.7-129.6c4.3-4.3,11.1-4.3,15.4,0
	l129.6,129.6c4.3,4.3,4.3,11.1,0,15.4l-25.8,25.8c-4.3,4.3-11.1,4.3-15.4,0L507.7,244c-4.3-4.3-11.1-4.3-15.4,0l-88.6,88.6
	c-4.3,4.3-11.1,4.3-15.4,0l-25.8-25.8C358.5,302.5,358.5,295.6,362.8,291.4z"/>
<path class="st0" d="M633.5,644.5c0-4-0.4-8.3-1.8-12c-2.7-8-11.8-13.1-19.8-11.7c-9.7,1.7-15,7.7-15,17.5c-0.1,12.3,0,24.7-0.1,37
	c0,1.3-0.1,2.6-0.4,3.8c-0.3,2.1-1.3,3.8-2,3.9c-0.8,0-1.9-1.7-2.3-3.8c-0.3-1.3-0.6-2.6-0.6-3.9c-0.1-17.4,0.1-34.9-0.1-52.4
	c-0.2-10.5-9-18.7-19.2-18.4c-10.4,0.3-16.4,7-16.4,18.3c0,12.6,0.1,25.1-0.1,37.8c0,1.2-0.3,2.4-0.7,3.7c-0.2,0.7-0.6,1.4-0.9,2
	c-0.7,1-2.6,0.4-3-1c-0.2-0.8-0.4-1.7-0.5-2.7c-0.1-1.6-0.3-3.2-0.3-4.7c-0.3-16.4,0.2-32.9-0.7-49.3c-0.7-11.4-9.3-18.4-19.6-17.8
	c-10.5,0.5-17.8,8.7-17.8,20.4c-0.1,14.9,0.1,29.8-0.1,44.7c0,1.3-0.3,2.5-0.6,3.7c-0.5,2-1.7,3.5-2.5,3.5c-0.8-0.1-1.7-2.3-2-4.9
	c-0.1-1.6-0.3-3.2-0.3-4.7c0-26.1,0-52.3,0-78.5c-0.1-5.7-0.1-11.4-0.1-17.1c0-14.9-9.4-25-22.1-24.9c-12.9,0.1-21.1,9.8-21.1,25.2
	v16.9c0,42.1,0,84.3-0.1,126.5c0,1.3-0.3,2.6-0.7,3.9c-0.7,2.1-3,3.2-5.1,2.4c-1.3-0.5-2.6-1-3.6-1.9c-11.1-9-21.9-18.4-32.9-27.5
	c-6.2-5.1-13.1-7.4-21.1-5c-9,2.7-14.7,8.4-16.8,17.5c-2.1,9.4,1.7,16.5,8.7,22.4c24.1,20.4,48.5,40.7,72.5,61.3
	c3.3,2.8,5.9,7.1,7.2,11.2c5,15.7,9.4,31.4,13.6,47.3c1.3,5,3.8,6.6,8.7,6.6c35.8-0.1,71.6-0.2,107.5,0c5.6,0,7.9-2.2,9-7.2
	c1.9-8.8,4.1-17.5,6.5-26.1c1.3-4.9,2-10.6,5.1-14.2c9-10.5,11.7-22.7,11.8-35.8C633.6,719,633.6,681.7,633.5,644.5L633.5,644.5z
	 M485.2,508.8c38.1,0,69,30.9,69,69.1h11.4c0-44.4-36-80.4-80.4-80.4s-80.4,36-80.4,80.4c0,18.9,6.5,36.3,17.5,50.1l8.6-7.5
	c-9.3-11.7-14.7-26.5-14.7-42.6C416.2,539.8,447.1,508.8,485.2,508.8L485.2,508.8z M399.7,640.3c1.5-0.4,2.9-0.7,4.3-0.8
	c-13-17.1-20.7-38.5-20.7-61.6c0-56.3,45.6-102,101.9-102s101.9,45.7,101.9,102c0,0.2,0,0.4,0,0.6c0,0.1,0,0.2,0,0.3l0.3,0l16.5,2.5
	c0-1.1,0-2.3,0-3.5c0-65.6-53.2-118.7-118.7-118.7c-65.6,0-118.7,53.2-118.7,118.8c0,25.7,8.2,49.5,22.1,68.9
	C391.4,643.9,395.1,641.7,399.7,640.3L399.7,640.3z"/>
</svg>
